github.com/Azure/azure-pipeline-go/pipeline,https://github.com/Azure/azure-pipeline-go/blob/v0.2.3/LICENSE,MIT
github.com/Azure/azure-sdk-for-go,https://github.com/Azure/azure-sdk-for-go/blob/v58.2.0/LICENSE.txt,MIT
github.com/Azure/azure-sdk-for-go/sdk/azcore,https://github.com/Azure/azure-sdk-for-go/blob/sdk/azcore/v0.22.0/sdk/azcore/LICENSE.txt,MIT
github.com/Azure/azure-sdk-for-go/sdk/azidentity,https://github.com/Azure/azure-sdk-for-go/blob/sdk/azidentity/v0.13.0/sdk/azidentity/LICENSE.txt,MIT
github.com/Azure/azure-sdk-for-go/sdk/internal,https://github.com/Azure/azure-sdk-for-go/blob/sdk/internal/v0.9.1/sdk/internal/LICENSE.txt,MIT
github.com/Azure/azure-sdk-for-go/sdk/keyvault/azsecrets,https://github.com/Azure/azure-sdk-for-go/blob/sdk/keyvault/azsecrets/v0.6.0/sdk/keyvault/azsecrets/LICENSE.txt,MIT
github.com/Azure/azure-sdk-for-go/sdk/keyvault/internal,https://github.com/Azure/azure-sdk-for-go/blob/sdk/keyvault/internal/v0.2.1/sdk/keyvault/internal/LICENSE.txt,MIT
github.com/Azure/azure-sdk-for-go/sdk/storage/azblob,https://github.com/Azure/azure-sdk-for-go/blob/sdk/storage/azblob/v0.3.0/sdk/storage/azblob/LICENSE.txt,MIT
github.com/Azure/azure-storage-blob-go/azblob,https://github.com/Azure/azure-storage-blob-go/blob/v0.14.0/LICENSE,MIT
github.com/Azure/azure-storage-queue-go/azqueue,https://github.com/Azure/azure-storage-queue-go/blob/636801874cdd/LICENSE,MIT
github.com/Azure/go-autorest/autorest,https://github.com/Azure/go-autorest/blob/autorest/v0.11.20/autorest/LICENSE,Apache-2.0
github.com/Azure/go-autorest/autorest/adal,https://github.com/Azure/go-autorest/blob/autorest/adal/v0.9.16/autorest/adal/LICENSE,Apache-2.0
github.com/Azure/go-autorest/autorest/azure/auth,https://github.com/Azure/go-autorest/blob/autorest/azure/auth/v0.5.8/autorest/azure/auth/LICENSE,Apache-2.0
github.com/Azure/go-autorest/autorest/azure/cli,https://github.com/Azure/go-autorest/blob/autorest/azure/cli/v0.4.2/autorest/azure/cli/LICENSE,Apache-2.0
github.com/Azure/go-autorest/autorest/date,https://github.com/Azure/go-autorest/blob/autorest/date/v0.3.0/autorest/date/LICENSE,Apache-2.0
github.com/Azure/go-autorest/autorest/to,https://github.com/Azure/go-autorest/blob/autorest/to/v0.4.0/autorest/to/LICENSE,Apache-2.0
github.com/Azure/go-autorest/autorest/validation,https://github.com/Azure/go-autorest/blob/autorest/validation/v0.3.1/autorest/validation/LICENSE,Apache-2.0
github.com/Azure/go-autorest/logger,https://github.com/Azure/go-autorest/blob/logger/v0.2.1/logger/LICENSE,Apache-2.0
github.com/Azure/go-autorest/tracing,https://github.com/Azure/go-autorest/blob/tracing/v0.6.0/tracing/LICENSE,Apache-2.0
github.com/AzureAD/microsoft-authentication-library-for-go/apps,https://github.com/AzureAD/microsoft-authentication-library-for-go/blob/v0.4.0/LICENSE,MIT
github.com/PaesslerAG/gval,https://github.com/PaesslerAG/gval/blob/v1.0.0/LICENSE,BSD-3-Clause
github.com/PaesslerAG/jsonpath,https://github.com/PaesslerAG/jsonpath/blob/v0.1.1/LICENSE,BSD-3-Clause
github.com/ProtonMail/go-crypto,https://github.com/ProtonMail/go-crypto/blob/87db9fbc61c7/LICENSE,BSD-3-Clause
github.com/ProtonMail/go-mime,https://github.com/ProtonMail/go-mime/blob/9b5a4261663a/LICENSE,MIT
github.com/ProtonMail/gopenpgp/v2,https://github.com/guilhem/gopenpgp/blob/4a57375c7e92/LICENSE,MIT
github.com/blang/semver,https://github.com/blang/semver/blob/v3.5.1/LICENSE,MIT
github.com/bluele/gcache,https://github.com/bluele/gcache/blob/v0.0.2/LICENSE,MIT
github.com/dimchansky/utfbom,https://github.com/dimchansky/utfbom/blob/v1.1.1/LICENSE,Apache-2.0
github.com/golang-jwt/jwt,https://github.com/golang-jwt/jwt/blob/v3.2.1/LICENSE,MIT
github.com/golang-jwt/jwt/v4,https://github.com/golang-jwt/jwt/blob/v4.0.0/LICENSE,MIT
github.com/google/uuid,https://github.com/google/uuid/blob/v1.3.0/LICENSE,BSD-3-Clause
github.com/guilhem/chunkreaderat,https://github.com/guilhem/chunkreaderat/blob/v0.1.0/LICENSE,Apache-2.0
github.com/guilhem/gorkers,https://github.com/guilhem/gorkers/blob/v0.0.1/LICENSE,MIT
github.com/inconshreveable/mousetrap,https://github.com/inconshreveable/mousetrap/blob/v1.0.0/LICENSE,Apache-2.0
github.com/klauspost/compress,https://github.com/klauspost/compress/blob/v1.13.6/LICENSE,Apache-2.0
github.com/kr/fs,https://github.com/kr/fs/blob/v0.1.0/LICENSE,BSD-3-Clause
github.com/kylelemons/godebug,https://github.com/kylelemons/godebug/blob/v1.1.0/LICENSE,Apache-2.0
github.com/mattn/go-ieproxy,https://github.com/mattn/go-ieproxy/blob/v0.0.1/LICENSE,MIT
github.com/mitchellh/go-homedir,https://github.com/mitchellh/go-homedir/blob/v1.1.0/LICENSE,MIT
github.com/pkg/browser,https://github.com/pkg/browser/blob/ce105d075bb4/LICENSE,BSD-2-Clause
github.com/pkg/errors,https://github.com/pkg/errors/blob/v0.9.1/LICENSE,BSD-2-Clause
github.com/pkg/sftp,https://github.com/pkg/sftp/blob/v1.13.4/LICENSE,BSD-2-Clause
github.com/sirupsen/logrus,https://github.com/sirupsen/logrus/blob/v1.8.1/LICENSE,MIT
github.com/spacemonkeygo/openssl,https://github.com/spacemonkeygo/openssl/blob/c2dcc5cca94a/LICENSE,Apache-2.0
github.com/spacemonkeygo/spacelog,https://github.com/spacemonkeygo/spacelog/blob/2296661a0572/LICENSE,Apache-2.0
github.com/spf13/cobra,https://github.com/spf13/cobra/blob/v1.2.1/LICENSE.txt,Apache-2.0
github.com/spf13/pflag,https://github.com/spf13/pflag/blob/v1.0.5/LICENSE,BSD-3-Clause
golang.org/x/crypto,https://cs.opensource.google/go/x/crypto/+/c6db032c:LICENSE,BSD-3-Clause
golang.org/x/net,https://cs.opensource.google/go/x/net/+/69e39bad:LICENSE,BSD-3-Clause
golang.org/x/sync,https://cs.opensource.google/go/x/sync/+/036812b2:LICENSE,BSD-3-Clause
golang.org/x/sys,https://cs.opensource.google/go/x/sys/+/1d35b9e2:LICENSE,BSD-3-Clause
golang.org/x/text,https://cs.opensource.google/go/x/text/+/v0.3.7:LICENSE,BSD-3-Clause
gopkg.in/yaml.v2,https://github.com/go-yaml/yaml/blob/v2.4.0/LICENSE,Apache-2.0
rdd-pipeline,Unknown,Apache-2.0
